la0_waveform.vcd
#0 $dumpon
$date today $end
$timescale 1 ns $end
$scope module top $end
$var wire 1 0 r_cmos_vsync $end
$var wire 1 1 r_cmos_href $end
$var wire 8 2 r_cmos_data $end
$upscope $end
$enddefinitions $end
#0
$dumpvars
10
11
b00011010 2
$end
#1
b00011011 2
#2
b00011100 2
#3
b00011011 2
#4
b00011010 2
#5
b00011011 2
#6
b00011010 2
#7
b00011011 2
#8
b00011010 2
#9
b00011001 2
#12
b00011010 2
#13
b00011001 2
#14
b00011000 2
#15
b00011001 2
#17
b00011000 2
#22
b00010111 2
#23
b00011000 2
#26
b00010110 2
#27
b00010111 2
#28
01
b00000000 2
#398
11
b01101111 2
#399
b01101101 2
#400
b01101111 2
#401
b01101010 2
#402
b01101111 2
#403
b01101100 2
#404
b01101011 2
#405
b01101100 2
#406
b01101011 2
#407
b01101100 2
#408
b01101010 2
#409
b01100111 2
#410
b01101010 2
#411
b01101001 2
#412
b01100101 2
#413
b01100111 2
#414
b01101000 2
#415
b01100110 2
#416
b01101001 2
#417
b01101000 2
#418
b01100110 2
#420
b01100101 2
#421
b01100110 2
#422
b01100011 2
#423
b01100010 2
#424
b01100001 2
#425
b01011101 2
#426
b01011010 2
#427
b01011011 2
#428
b01011101 2
#429
b01011001 2
#430
b01011100 2
#431
b01011010 2
#432
b01011100 2
#433
b01011011 2
#435
b01011101 2
#436
b01011100 2
#437
b01011101 2
#438
b01011111 2
#439
b01100001 2
#440
b01011111 2
#441
b01100011 2
#442
b01100100 2
#443
b01100011 2
#444
b01100100 2
#446
b01100110 2
#447
b01100011 2
#448
b01100110 2
#449
b01101000 2
#450
b01101011 2
#451
b01101010 2
#452
b01101101 2
#453
b01101111 2
#454
b01110001 2
#455
b01110011 2
#456
b01110100 2
#457
b01110011 2
#458
b01110101 2
#459
b01110110 2
#460
b01110111 2
#461
b01110100 2
#462
b01111001 2
#465
b01110111 2
#466
b01110110 2
#467
b01110001 2
#468
b01110000 2
#469
b01101000 2
#470
b01100000 2
#471
b01011001 2
#472
b01010010 2
#473
b01001000 2
#474
b00111101 2
#475
b00110100 2
#476
b00101101 2
#477
b00100101 2
#478
b00100000 2
#479
b00011110 2
#483
b00100000 2
#484
b00100001 2
#485
b00100010 2
#486
b00100100 2
#487
b00100101 2
#488
b00100110 2
#490
b00100111 2
#492
b00101000 2
#493
b00101001 2
#494
b00101000 2
#495
b00101010 2
#496
b00101001 2
#497
b00101000 2
#498
b00101010 2
#500
b00101101 2
#501
b00101111 2
#502
b00110100 2
#503
b00110110 2
#504
b00111010 2
#505
b00111100 2
#506
b01000010 2
#508
b01000101 2
#509
b01000011 2
#510
b01001000 2
#511
b01000111 2
#512
b01001011 2
#513
b01001111 2
#514
b01010001 2
#515
b01010000 2
#516
b01010001 2
#517
b01010100 2
#518
b01010110 2
#521
b01011000 2
#522
b01011100 2
#523
b01011110 2
#524
b01100011 2
#525
b01100101 2
#526
b01100100 2
#527
b01100011 2
#528
b01100000 2
#529
b01010111 2
#530
b01001100 2
#531
b01000000 2
#532
b00111000 2
#533
b00110000 2
#534
b00101111 2
#535
b00110001 2
#536
b00110011 2
#537
b00110100 2
#538
b00110101 2
#539
b00110111 2
#540
b00111000 2
#541
b00111110 2
#542
b01001101 2
#543
b01110010 2
#544
b10110001 2
#545
b11110100 2
#546
b11111111 2
#547
b11111101 2
#548
b11001100 2
#549
b11001001 2
#550
b11110011 2
#551
b11111001 2
#552
b11100000 2
#553
b10110000 2
#554
b10001000 2
#555
b01100110 2
#556
b01000111 2
#557
b00110101 2
#558
b00110100 2
#559
b00110111 2
#560
b00111011 2
#561
b00111110 2
#562
b01000001 2
#563
b01000011 2
#564
b01000111 2
#565
b01001010 2
#566
b01001100 2
#568
b01010011 2
#570
b01010111 2
#571
b01010110 2
#572
b01011011 2
#573
b01011101 2
#574
b01100001 2
#575
b01100000 2
#576
b01011100 2
#577
b01001111 2
#578
b01000010 2
#579
b00110011 2
#580
b00101000 2
#581
b00100100 2
#582
b00100110 2
#583
b00100111 2
#584
b00101001 2
#585
b00101101 2
#586
b00110000 2
#587
b00101111 2
#588
b00110001 2
#589
b00110011 2
#590
b00110010 2
#592
b00110001 2
#595
b00110000 2
#596
b00101111 2
#599
b00101100 2
#600
b00101101 2
#601
b00101010 2
#602
b00101011 2
#603
b00101101 2
#604
b00101011 2
#605
b00101010 2
#606
b00101100 2
#607
b00101010 2
#608
b00101100 2
#609
b00101011 2
#611
b00101010 2
#612
b00101001 2
#613
b00101000 2
#614
b00100111 2
#615
b00100110 2
#616
b00100111 2
#617
b00100101 2
#621
b00100100 2
#622
b00100110 2
#623
b00100101 2
#625
b00100110 2
#626
b00100101 2
#627
b00100110 2
#628
b00100111 2
#630
b00101000 2
#631
b00100110 2
#633
b00100100 2
#634
b00100101 2
#635
b00100100 2
#637
b00100011 2
#638
b00100100 2
#639
b00100011 2
#640
b00100001 2
#641
b00100011 2
#644
b00100100 2
#645
b00100011 2
#648
b00100100 2
#649
b00100011 2
#650
b00100100 2
#651
b00100011 2
#652
b00100101 2
#653
b00100100 2
#654
b00100110 2
#655
b00100101 2
#656
b00101001 2
#657
b00100111 2
#659
b00100100 2
#660
b00100101 2
#661
b00100100 2
#662
b00100011 2
#663
b00100010 2
#664
b00100001 2
#667
b00011110 2
#668
b00011111 2
#669
b00011110 2
#670
b00100000 2
#673
b00100001 2
#674
b00100010 2
#675
b00100011 2
#676
b00100100 2
#679
b00100001 2
#681
b00011111 2
#683
b00011110 2
#685
b00011100 2
#686
b00011110 2
#687
b00011100 2
#690
b00011101 2
#691
b00011100 2
#692
b00011111 2
#693
b00011110 2
#696
b00011101 2
#700
b00100000 2
#701
b00100010 2
#702
b00100111 2
#703
b00100101 2
#704
b00100111 2
#707
b00101000 2
#708
b00100101 2
#709
b00100001 2
#710
b00100100 2
#711
b00100001 2
#712
b00100011 2
#713
b00100100 2
#714
b00101000 2
#715
b00101111 2
#716
b00110000 2
#717
b00101111 2
#718
b00110001 2
#719
b00101011 2
#720
b00101100 2
#721
b00101010 2
#722
b00101100 2
#723
b00101010 2
#724
b00101110 2
#725
b00110001 2
#726
b00111000 2
#727
b00101101 2
#728
b00101001 2
#729
b00110000 2
#730
b00110101 2
#731
b00110100 2
#732
b00110110 2
#733
b00110111 2
#734
b00111000 2
#737
b00111010 2
#739
b00111001 2
#741
b00111010 2
#742
b00111100 2
#743
b00111011 2
#744
b00111100 2
#745
b00111010 2
#746
b00111011 2
#747
b00111101 2
#748
b00111011 2
#749
b00111100 2
#750
b00111010 2
#751
b00111100 2
#752
b00111011 2
#753
b00111010 2
#756
b00111011 2
#757
b00111100 2
#758
b00111101 2
#759
b00111010 2
#760
b00111011 2
#761
b00111010 2
#762
b00111100 2
#763
b00111110 2
#764
b01001000 2
#765
b01110100 2
#766
b01111000 2
#767
b01110001 2
#768
b01101100 2
#769
b01100101 2
#770
b01100001 2
#771
b01011001 2
#772
b01010001 2
#773
b01010000 2
#774
b01001011 2
#775
b01000101 2
#777
b01000001 2
#779
b01000000 2
#780
b01000010 2
#781
b01000001 2
#782
b01000010 2
#783
b00111110 2
#784
b01000001 2
#785
b00111110 2
#786
b00111101 2
#787
b01000001 2
#788
b00111111 2
#789
b00111011 2
#790
b00110100 2
#791
b00111001 2
#792
b00111110 2
#793
b00111111 2
#796
b00111100 2
#797
b00111010 2
#798
b00111101 2
#799
b00111011 2
#801
b00110100 2
#802
b00101100 2
#803
b00101101 2
#804
b00111010 2
#805
b00111011 2
#806
b00111001 2
#807
b00111000 2
#808
b00111001 2
#811
b00111010 2
#812
b00111100 2
#813
b00110110 2
#814
b00101001 2
#815
b00101011 2
#816
b00110001 2
#819
b00101110 2
#820
b00110001 2
#821
b00110100 2
#822
b00111000 2
#823
b00111001 2
#825
b00110011 2
#826
b00100111 2
#827
b00101110 2
#828
b01000000 2
#829
b01000001 2
#830
b00111000 2
#831
b00101101 2
#833
b00110100 2
#834
b00111000 2
#835
b00111010 2
#836
b00111000 2
#837
b00101111 2
#838
b00111000 2
#839
b00110001 2
#841
b00100111 2
#842
b00101011 2
#843
b00110011 2
#844
b00101110 2
#845
b00111000 2
#846
b00111011 2
#847
b00111000 2
#848
b00111001 2
#849
b00110111 2
#850
b00111010 2
#851
b00111001 2
#853
b00111010 2
#854
b00111000 2
#856
b00111010 2
#857
b00111000 2
#858
b00110111 2
#860
b00111000 2
#861
b00110111 2
#863
b00110101 2
#864
b00110100 2
#866
b00110101 2
#867
b00110110 2
#869
b00110101 2
#870
b00110110 2
#871
b00110011 2
#872
b00110100 2
#873
b00110110 2
#874
b00110111 2
#876
b00110110 2
#877
b00110011 2
#879
b00110110 2
#882
b00110101 2
#883
b00110001 2
#884
b00101111 2
#885
b00110100 2
#886
b00111000 2
#887
b00110110 2
#889
b00110100 2
#890
b00100110 2
#891
b00110010 2
#892
b00110101 2
#893
b00110110 2
#894
b00110111 2
#895
b00110101 2
#896
b00101110 2
#897
b00110000 2
#898
b00111000 2
#900
b00111001 2
#902
b00110110 2
#903
b00110111 2
#904
b00111000 2
#905
b00110111 2
#907
b00110011 2
#908
b00110100 2
#909
b00101110 2
#910
b00110010 2
#911
b00110111 2
#912
b00111110 2
#913
b01000001 2
#914
b01000101 2
#915
b01000110 2
#916
b01000001 2
#918
b01010100 2
#919
b01001110 2
#920
b00110011 2
#921
b00101001 2
#922
b00101010 2
#923
b00110011 2
#924
b00110110 2
#925
b00110101 2
#926
b00110110 2
#927
b00110100 2
#928
b00110111 2
#929
b00111011 2
#930
b00111100 2
#931
b00110000 2
#932
b00101011 2
#933
b00101010 2
#934
b00110000 2
#935
b00110010 2
#936
b00110011 2
#938
b00110110 2
#939
b00110111 2
#940
b00111010 2
#941
b00110101 2
#942
b00110000 2
#943
b01000001 2
#944
b01001100 2
#945
b01000100 2
#946
b00111011 2
#947
b00110010 2
#948
b00110011 2
#949
b00111000 2
#950
b00111101 2
#951
b01000101 2
#952
b01000110 2
#953
b01000011 2
#954
b01001100 2
#955
b01010110 2
#956
b01001000 2
#957
b00111001 2
#958
b00110101 2
#959
b00111000 2
#960
b00111011 2
#961
b00110101 2
#962
b01000011 2
#963
b01011001 2
#964
b01011110 2
#965
b01010110 2
#966
b01010100 2
#967
b01001000 2
#968
b00111011 2
#969
b00111000 2
#970
b00111110 2
#971
b01000011 2
#972
b01100101 2
#973
b01100011 2
#974
b01010010 2
#975
b01010111 2
#977
b01010010 2
#978
b00111110 2
#979
b00111011 2
#980
b01000010 2
#981
b01011100 2
#982
b11000101 2
#983
b01111010 2
#984
b01010011 2
#985
b00111110 2
#986
b01000001 2
#988
b00111110 2
#990
b01000110 2
#991
b01010011 2
#992
b10111000 2
#993
b11111111 2
#994
b10011001 2
#995
b01011000 2
#996
b01001010 2
#997
b01000010 2
#998
b00111111 2
#999
b01000000 2
#1000
b01001000 2
#1001
b01001010 2
#1002
b01011010 2
#1003
b10001001 2
#1004
b10000100 2
#1005
b01010101 2
#1006
b00110100 2
#1007
b00101110 2
#1008
b01000001 2
#1009
b01001010 2
#1010
b01001111 2
#1011
b01001110 2
#1012
b01001101 2
#1013
b01001000 2
#1014
b01000111 2
#1015
b01000011 2
#1017
b00111010 2
#1018
b00110011 2
#1019
b00101111 2
#1020
b00100111 2
#1021
b00100001 2
#1022
b00011100 2
#1023
b00011001 2
#1024
b00010101 2
#1026
b00010110 2
#1027
b00010100 2
#1028
b00010101 2
#1029
b00010100 2
#1030
b00010110 2
#1031
b00010111 2
#1032
b00011010 2
#1033
b00100000 2
#1034
b00100100 2
#1035
b00011110 2
#1036
b00011010 2
#1037
b00010110 2
#1039
b00010101 2
#1044
b00010110 2
#1045
b00010101 2
#1046
b00010110 2
#1047
b00010111 2
#1049
b00011000 2
#1050
b00010111 2
#1051
b00010110 2
#1052
b00010111 2
#1054
b00010110 2
#1056
b00010111 2
#1057
b00011001 2
#1058
b00011101 2
#1059
b00101000 2
#1060
b00110111 2
#1061
b01001010 2
#1062
b01011110 2
#1063
b01101011 2
#1064
b01101100 2
#1065
b01101010 2
#1066
b01101100 2
#1067
b01101011 2
#1068
b01101110 2
#1069
b01100101 2
#1070
b01100000 2
#1071
b01011000 2
#1073
b01010001 2
#1074
b01010000 2
#1075
b01001110 2
#1076
b01010000 2
#1077
b01001110 2
#1078
b01001100 2
#1080
b01001010 2
#1081
b01001011 2
#1084
b01001101 2
#1085
b01001100 2
#1087
b01001110 2
#1089
b01001101 2
#1090
b01001111 2
#1091
b01001100 2
#1092
b01001001 2
#1093
b01001000 2
#1095
b01001001 2
#1096
b01001010 2
#1097
b01001001 2
#1098
b01001101 2
#1099
b01001110 2
#1100
b01010010 2
#1101
b01010000 2
#1102
b01001111 2
#1103
b01010000 2
#1104
b01001111 2
#1105
b01001110 2
#1107
b01010000 2
#1108
b01001110 2
#1109
b01001100 2
#1110
b01001101 2
#1111
b01001010 2
#1112
b01001011 2
#1113
b01001000 2
#1114
b01001001 2
#1115
b01001010 2
#1116
b01001000 2
#1117
b01000111 2
#1118
b01001000 2
#1119
b01001001 2
#1120
b01001000 2
#1121
b01001010 2
#1122
b01001001 2
#1124
b01001010 2
#1126
b01001011 2
#1127
b01001000 2
#1128
b01001010 2
#1129
b01001011 2
#1130
b01001010 2
#1131
b01001001 2
#1132
b01001000 2
#1134
b01001011 2
#1136
b01010000 2
#1137
b01011000 2
#1138
b01110001 2
#1139
b10010011 2
#1140
b11000000 2
#1141
b11011010 2
#1142
b11100001 2
#1143
b11010011 2
#1144
b11001000 2
#1145
b10110111 2
#1146
b10101000 2
#1147
b10011100 2
#1148
b10001111 2
#1149
b10001000 2
#1150
b10000000 2
#1151
b01111000 2
#1152
b01101111 2
#1153
b01101001 2
#1155
b01100100 2
#1156
b01011011 2
#1157
b01010011 2
#1158
b01001101 2
#1159
b01000111 2
#1160
b01000011 2
#1161
b01000100 2
#1162
b01000001 2
#1163
b01000100 2
#1164
b01000011 2
#1165
b01000100 2
#1166
b01000011 2
#1168
b01000111 2
#1170
b01001100 2
#1171
b01001011 2
#1173
b01001100 2
#1174
b01001011 2
#1175
b01001100 2
#1177
b01000011 2
#1178
b00110001 2
#1179
b00100100 2
#1180
b00100111 2
#1181
b00101110 2
#1182
b00101111 2
#1183
b00101011 2
#1184
b00100110 2
#1185
b00100011 2
#1187
b00100000 2
#1188
b00100001 2
#1189
b00100010 2
#1190
b00100100 2
#1192
b00100110 2
#1193
b00110110 2
#1194
b01000111 2
#1195
b01001100 2
#1197
b01001101 2
#1198
b01001110 2
#1199
b01001101 2
#1200
b01001111 2
#1201
b01010000 2
#1202
b01001110 2
#1204
b01010000 2
#1205
b01001110 2
#1206
b01001111 2
#1207
b01010001 2
#1208
b01010000 2
#1210
b01010011 2
#1211
b01001111 2
#1212
b01010010 2
#1213
b01010000 2
#1216
b01010010 2
#1217
b01010100 2
#1218
b01010010 2
#1219
b01010100 2
#1220
b01010101 2
#1221
b01010100 2
#1222
b01010111 2
#1223
b01011110 2
#1224
b01110001 2
#1225
b10100100 2
#1226
b11011110 2
#1227
b11101011 2
#1228
b11101110 2
#1229
b11011101 2
#1230
b11011001 2
#1231
b11001001 2
#1232
b10111011 2
#1233
b10110001 2
#1234
b10100110 2
#1235
b10011101 2
#1236
b10001111 2
#1237
b10000100 2
#1238
b01111100 2
#1239
b01110000 2
#1240
b01100100 2
#1241
b01011011 2
#1242
b01010100 2
#1243
b01010011 2
#1244
b01010001 2
#1245
b01010000 2
#1246
b01010001 2
#1248
b01010010 2
#1249
b01010000 2
#1250
b01010010 2
#1251
b01010001 2
#1252
b01001111 2
#1253
b01010001 2
#1254
b01010000 2
#1255
b01001111 2
#1257
b01010000 2
#1258
b01010010 2
#1259
b01001111 2
#1260
b01010000 2
#1261
b01001111 2
#1262
b01010011 2
#1263
b01010100 2
#1264
b01010011 2
#1265
b01010100 2
#1266
b01010101 2
#1267
b01010111 2
#1268
b01010110 2
#1269
b01010001 2
#1271
b01010100 2
#1272
b01011000 2
#1273
b01011100 2
#1274
b01101100 2
#1275
b01110111 2
#1276
b10000010 2
#1277
b10000100 2
#1278
b10000101 2
#1279
b01111010 2
#1280
b01101100 2
#1281
b01011011 2
#1282
b01001011 2
#1283
b01000111 2
#1284
b01000010 2
#1285
b00111001 2
#1286
b00101100 2
#1287
b00100100 2
#1289
b00100110 2
#1290
b00101001 2
#1291
b00101110 2
#1292
b01000000 2
#1293
b01010110 2
#1294
b01010100 2
#1295
b00111111 2
#1296
b00101010 2
#1297
b00100000 2
#1298
b00011110 2
#1299
b00011101 2
#1301
b00011100 2
#1302
b00011011 2
#1304
b00011101 2
#1305
b00011110 2
#1306
b00011111 2
#1307
b00011110 2
#1308
b00011011 2
#1309
b00011010 2
#1310
b00011001 2
#1311
b00010111 2
#1312
b00010110 2
#1314
b00011000 2
#1315
b00011010 2
#1316
b00011011 2
#1317
b00011100 2
#1318
b00011011 2
#1319
b00011010 2
#1322
b00011011 2
#1325
b00011100 2
#1326
b00011111 2
#1327
b00011101 2
#1328
b00011100 2
#1329
b00011011 2
#1332
b00011001 2
#1336
b00011010 2
#1337
b00011001 2
#1338
b00011010 2
#1339
b00011000 2
#1341
b00011001 2
#1342
b00011011 2
#1344
b00011101 2
#1345
b00011100 2
#1346
b00011101 2
#1348
b00011111 2
#1351
b00011110 2
#1352
b00011101 2
#1353
b00011110 2
#1354
b00100000 2
#1355
b00100001 2
#1356
b00100010 2
#1357
b00100100 2
#1359
b00100110 2
#1360
b00101001 2
#1362
b00101100 2
#1363
b00101111 2
#1364
b00110001 2
#1365
b00110011 2
#1367
b00110100 2
#1368
b00110101 2
#1369
b00110011 2
#1371
b00110010 2
#1372
b00101111 2
#1373
b00101000 2
#1374
b00100110 2
#1375
b00100010 2
#1376
b00100000 2
#1377
b00100011 2
#1378
b00100110 2
#1380
b00101010 2
#1381
b00101100 2
#1382
b00101111 2
#1384
b00110010 2
#1385
b00110001 2
#1386
b00110101 2
#1387
b00110111 2
#1388
b00111110 2
#1389
b01000010 2
#1390
b01000110 2
#1391
b01000100 2
#1392
b01000110 2
#1393
b01000100 2
#1394
b00111110 2
#1395
b00111000 2
#1396
b00110100 2
#1397
b00101101 2
#1398
b00101011 2
#1399
b00101010 2
#1401
b00101000 2
#1402
b00101011 2
#1403
b00101000 2
#1405
b00100101 2
#1407
b00100011 2
#1408
b00100100 2
#1409
b00100010 2
#1410
b00100100 2
#1411
b00100101 2
#1412
b00100111 2
#1413
b00101000 2
#1414
b00101010 2
#1415
b00101100 2
#1416
b00101110 2
#1417
b00101111 2
#1418
b00110100 2
#1419
b00111011 2
#1420
b01000011 2
#1421
b01001011 2
#1422
b01010000 2
#1423
b01001100 2
#1424
b01000000 2
#1425
b00110101 2
#1426
b00101110 2
#1427
b00100100 2
#1428
b00100000 2
#1429
b00100010 2
#1430
b00101001 2
#1431
b00101010 2
#1432
b00101100 2
#1433
b00101010 2
#1434
b00101000 2
#1435
b00100101 2
#1436
b00100010 2
#1437
b00011111 2
#1438
b00011101 2
#1439
b00011011 2
#1441
b00011010 2
#1442
b00011001 2
#1445
b00010111 2
#1446
b00011001 2
#1447
b00010111 2
#1450
b00011000 2
#1451
b00010111 2
#1452
b00011000 2
#1453
b00010110 2
#1454
b00010111 2
#1457
b00010110 2
#1460
b00010101 2
#1462
b00010110 2
#1463
b00011000 2
#1464
b00011011 2
#1465
b00011110 2
#1466
b00100000 2
#1467
b00011111 2
#1468
b00011110 2
#1469
b00011001 2
#1470
b00010111 2
#1471
b00010110 2
#1472
b00011000 2
#1474
b00011001 2
#1476
b00011011 2
#1477
b00011010 2
#1478
b00011101 2
#1479
b00011110 2
#1480
b00100000 2
#1481
b00100001 2
#1483
b00100010 2
#1484
b00100101 2
#1486
b00100110 2
#1487
b00100111 2
#1488
b00101010 2
#1489
b00101001 2
#1492
b00101000 2
#1493
b00100111 2
#1494
b00101001 2
#1495
b00100101 2
#1496
b00100111 2
#1497
b00101000 2
#1498
b00101001 2
#1499
b00101010 2
#1500
b00101001 2
#1501
b00101000 2
#1502
b00100110 2
#1503
b00100101 2
#1504
b00100110 2
#1505
b00100100 2
#1506
b00100011 2
#1508
b00100000 2
#1511
b00011110 2
#1513
b00011101 2
#1515
b00011100 2
#1516
b00011011 2
#1517
b00011010 2
#1519
b00011001 2
#1520
b00011000 2
#1521
b00011001 2
#1522
b00011000 2
#1523
b00010111 2
#1525
b00010110 2
#1528
b00010101 2
#1530
b00010100 2
#1533
b00010011 2
#1536
b00010101 2
#1537
b00010011 2
#1538
b00010100 2
#1541
b00010110 2
#1542
b00011001 2
#1543
b00011100 2
#1544
b00011111 2
#1545
b00011101 2
#1546
b00011001 2
#1547
b00011000 2
#1549
b00010110 2
#1551
b00010101 2
#1552
b00010110 2
#1554
b00010111 2
#1555
b00010110 2
#1557
b00010111 2
#1558
b00011000 2
#1565
b00010111 2
#1566
b00010110 2
#1569
b00010101 2
#1570
b00010111 2
#1571
b00010101 2
#1573
b00010100 2
#1574
b00010101 2
#1575
b00010100 2
#1577
b00010010 2
#1578
b00010011 2
#1580
b00010010 2
#1581
b00010001 2
#1582
b00010010 2
#1583
b00010001 2
#1585
b00001111 2
#1586
b00010000 2
#1587
b00010001 2
#1588
b00010000 2
#1590
b00001111 2
#1596
b00001110 2
#1598
b00001111 2
#1601
b00010000 2
#1602
b00001111 2
#1603
b00010000 2
#1606
b00010100 2
#1607
b00011111 2
#1608
b00100111 2
#1609
b00101010 2
#1610
b00101001 2
#1611
b00100111 2
#1614
b00101001 2
#1615
b00100111 2
#1616
b00100101 2
#1617
b00100100 2
#1620
b00100011 2
#1621
b00100100 2
#1622
b00100011 2
#1623
b00100001 2
#1626
b00100011 2
#1627
b00100010 2
#1628
b00100001 2
#1629
b00100000 2
#1632
b00011110 2
#1633
b00100000 2
#1635
b00011111 2
#1636
b00011110 2
#1638
b00011101 2
#1641
b00011100 2
#1642
b00011011 2
#1644
b00011101 2
#1645
b00011011 2
#1646
b00011100 2
#1647
b00011010 2
#1648
b00011011 2
#1651
b00011010 2
#1652
b00011011 2
#1653
b00011010 2
#1654
b00011100 2
#1655
b00011010 2
#1656
b00011011 2
#1660
b00011001 2
#1661
b00011010 2
#1663
b00011001 2
#1664
b00011010 2
#1665
b00011001 2
#1668
b00011010 2
#1669
b00011000 2
#1671
b00010111 2
#1672
b00011001 2
#1673
b00010111 2
#1676
b00011000 2
#1677
b00010111 2
#1678
01
b00000000 2
#2048
11
b01101110 2
#2049
b01101111 2
#2050
b01101011 2
#2051
b01101100 2
#2052
b01101011 2
#2053
b01101110 2
#2054
b01101011 2
#2055
b01101001 2
#2057
b01101010 2
#2058
b01100101 2
#2059
b01101000 2
#2060
b01100110 2
#2061
b01100111 2
#2062
b01100101 2
#2063
b01100110 2
#2064
b01100101 2
#2065
b01100011 2
#2066
b01100001 2
#2067
b01100011 2
#2068
b01100111 2
#2069
b01100100 2
#2070
b01100101 2
#2071
b01100011 2
#2072
b01100001 2
#2073
b01100000 2
#2074
b01011110 2
#2075
b01011011 2
#2076
b01011010 2
#2078
b01011000 2
#2079
b01010110 2
#2080
b01010111 2
#2081
b01010110 2
#2082
b01011000 2
#2083
b01010110 2
#2085
b01011010 2
#2086
b01011001 2
#2088
b01011100 2
#2089
b01011111 2
#2091
b01100000 2
#2092
b01011111 2
#2093
b01100011 2
#2094
b01100001 2
#2095
b01100101 2
#2096
b01100010 2
#2097
b01100101 2
#2098
b01100100 2
#2099
b01100101 2
#2100
b01100111 2
#2101
b01101000 2
#2102
b01101010 2
#2105
b01101011 2
#2107
b01110000 2
#2108
b01110011 2
#2109
b01110001 2
#2111
b01110010 2
#2112
b01110001 2
#2113
b01110111 2
#2114
b01110100 2
#2115
b01110110 2
#2116
b01110111 2
#2117
b01110110 2
#2118
b01110101 2
#2119
b01110011 2
#2120
b01101100 2
#2121
b01101010 2
#2122
b01100011 2
#2123
b01011000 2
#2124
b01001110 2
#2125
b01000111 2
#2126
b00111100 2
#2127
b00110010 2
#2128
b00101000 2
#2129
b00100001 2
#2130
b00011101 2
#2131
b00011100 2
#2133
b00011111 2
#2134
b00011101 2
#2135
b00011111 2
#2137
b00100001 2
#2139
b00100100 2
#2140
b00100011 2
#2141
b00100101 2
#2142
b00100011 2
#2143
b00100110 2
#2144
b00100100 2
#2145
b00100101 2
#2147
b00100110 2
#2148
b00100101 2
#2149
b00100111 2
#2150
b00101001 2
#2151
b00101101 2
#2152
b00110000 2
#2153
b00110110 2
#2154
b00111000 2
#2155
b00111011 2
#2156
b00111100 2
#2157
b01000001 2
#2158
b01000000 2
#2159
b01000101 2
#2161
b01000111 2
#2162
b01001001 2
#2163
b01001100 2
#2164
b01001101 2
#2165
b01010001 2
#2166
b01010010 2
#2167
b01010000 2
#2168
b01010100 2
#2169
b01010101 2
#2170
b01010110 2
#2171
b01011001 2
#2173
b01011100 2
#2174
b01011111 2
#2175
b01100011 2
#2176
b01100111 2
#2177
b01101000 2
#2178
b01100010 2
#2179
b01100000 2
#2180
b01010111 2
#2181
b01001110 2
#2182
b01000010 2
#2183
b00111010 2
#2184
b00110010 2
#2187
b00110100 2
#2189
b00110110 2
#2190
b00111000 2
#2191
b01000000 2
#2192
b01010011 2
#2193
b10000010 2
#2194
b11001011 2
#2195
b11111011 2
#2196
b11111111 2
#2197
b11110111 2
#2198
b11001011 2
#2199
b11011110 2
#2200
b11111011 2
#2201
b11111000 2
#2202
b11010010 2
#2203
b10100010 2
#2204
b01111010 2
#2205
b01011111 2
#2206
b00111100 2
#2207
b00110000 2
#2209
b00110011 2
#2210
b00110100 2
#2211
b00111001 2
#2212
b00111100 2
#2213
b01000000 2
#2214
b01000010 2
#2215
b01000110 2
#2216
b01001010 2
#2217
b01001111 2
#2218
b01010000 2
#2219
b01010101 2
#2220
b01010100 2
#2221
b01010101 2
#2222
b01011000 2
#2223
b01011100 2
#2224
b01011011 2
#2225
b01100000 2
#2226
b01011110 2
#2227
b01010110 2
#2228
b01001000 2
#2229
b00111101 2
#2230
b00101101 2
#2231
b00100111 2
#2232
b00100110 2
#2233
b00100111 2
#2234
b00101001 2
#2235
b00101011 2
#2236
b00101100 2
#2239
b00101110 2
#2242
b00101101 2
#2243
b00101110 2
#2245
b00101101 2
#2246
b00101110 2
#2247
b00101101 2
#2249
b00101100 2
#2250
b00101010 2
#2251
b00101100 2
#2253
b00101101 2
#2254
b00101100 2
#2255
b00101011 2
#2256
b00101010 2
#2257
b00101011 2
#2258
b00101010 2
#2259
b00101011 2
#2260
b00101001 2
#2263
b00101010 2
#2264
b00100111 2
#2265
b00100100 2
#2266
b00100110 2
#2267
b00100100 2
#2269
b00100101 2
#2272
b00100110 2
#2273
b00100101 2
#2275
b00100111 2
#2279
b00101001 2
#2283
b00100111 2
#2284
b00100101 2
#2288
b00100100 2
#2289
b00100011 2
#2291
b00100100 2
#2292
b00100101 2
#2293
b00100100 2
#2295
b00100010 2
#2297
b00100011 2
#2299
b00100100 2
#2300
b00100011 2
#2301
b00100100 2
#2302
b00100011 2
#2303
b00100100 2
#2304
b00100101 2
#2305
b00100110 2
#2306
b00100111 2
#2307
b00100110 2
#2308
b00101000 2
#2309
b00100101 2
#2310
b00100100 2
#2312
b00100010 2
#2314
b00011111 2
#2315
b00100000 2
#2316
b00011110 2
#2320
b00011111 2
#2323
b00100000 2
#2324
b00100001 2
#2325
b00100011 2
#2328
b00100010 2
#2329
b00100001 2
#2330
b00011111 2
#2331
b00011110 2
#2333
b00011111 2
#2335
b00011110 2
#2336
b00011111 2
#2337
b00011110 2
#2338
b00011101 2
#2339
b00011110 2
#2340
b00011101 2
#2341
b00011110 2
#2342
b00011111 2
#2346
b00011110 2
#2347
b00100000 2
#2349
b00100001 2
#2350
b00100010 2
#2351
b00100100 2
#2352
b00100101 2
#2353
b00100110 2
#2354
b00100100 2
#2355
b00100101 2
#2356
b00100110 2
#2358
b00100011 2
#2359
b00100010 2
#2360
b00100011 2
#2363
b00100101 2
#2364
b00101000 2
#2365
b00101101 2
#2366
b00101111 2
#2367
b00110000 2
#2369
b00101111 2
#2370
b00101100 2
#2371
b00101010 2
#2372
b00101100 2
#2374
b00101101 2
#2375
b00110000 2
#2376
b00110101 2
#2377
b00110000 2
#2378
b00101000 2
#2379
b00101111 2
#2380
b00110011 2
#2382
b00110110 2
#2383
b00111000 2
#2385
b00110101 2
#2386
b00111000 2
#2387
b00111011 2
#2388
b00111100 2
#2389
b00111011 2
#2390
b00111100 2
#2391
b00111001 2
#2392
b00111100 2
#2393
b00111010 2
#2394
b00111011 2
#2395
b00111100 2
#2396
b00111001 2
#2397
b00111010 2
#2398
b00111011 2
#2399
b00111100 2
#2401
b00111010 2
#2402
b00111011 2
#2403
b00111100 2
#2404
b00111011 2
#2405
b00111110 2
#2406
b00111011 2
#2408
b00111101 2
#2409
b00111010 2
#2410
b00111011 2
#2411
b00111010 2
#2413
b00111111 2
#2414
b01000110 2
#2415
b01111000 2
#2416
b10100100 2
#2417
b10100010 2
#2418
b10100100 2
#2420
b10100001 2
#2422
b10011111 2
#2423
b10011011 2
#2424
b10010111 2
#2425
b10001111 2
#2426
b10001011 2
#2427
b10000001 2
#2428
b01110110 2
#2429
b01110101 2
#2430
b01101110 2
#2431
b01101100 2
#2432
b01100100 2
#2433
b01011101 2
#2434
b01010101 2
#2435
b01010001 2
#2436
b01010000 2
#2437
b01001010 2
#2438
b01000111 2
#2439
b01000101 2
#2440
b01000011 2
#2441
b01000010 2
#2442
b01000001 2
#2443
b01000011 2
#2444
b01000010 2
#2445
b00111111 2
#2450
b00111110 2
#2451
b00111001 2
#2452
b00110011 2
#2453
b00111010 2
#2454
b00111110 2
#2455
b00111111 2
#2458
b00111010 2
#2459
b00111101 2
